{
  "project_info": {
    "project_number": "118510222262",
    "firebase_url": "https://mini-projet-9a634.firebaseio.com",
    "project_id": "mini-projet-9a634",
    "storage_bucket": "mini-projet-9a634.appspot.com"
  },
  "client": [
    {
      "client_info": {
        "mobilesdk_app_id": "1:118510222262:android:c8136364b4fdfbfcc21f17",
        "android_client_info": {
          "package_name": "com.example.miniprojet"
        }
      },
      "oauth_client": [
        {
          "client_id": "118510222262-71et609ccc8ut89m6ciagu3q55kqmvb9.apps.googleusercontent.com",
          "client_type": 3
        }
      ],
      "api_key": [
        {
          "current_key": "AIzaSyCHo458w4qNjE1wn3tBHmY4k1UvrAqAt2o"
        }
      ],
      "services": {
        "appinvite_service": {
          "other_platform_oauth_client": [
            {
              "client_id": "118510222262-71et609ccc8ut89m6ciagu3q55kqmvb9.apps.googleusercontent.com",
              "client_type": 3
            }
          ]
        }
      }
    }
  ],
  "configuration_version": "1"
}